<?xml version="1.0" encoding="UTF-8"?>
<svg width="388px" height="6300px" viewBox="0 0 388 6300" version="1.1" xmlns="http://www.w3.org/2000/svg" xmlns:xlink="http://www.w3.org/1999/xlink">
    <!-- Generator: Sketch 52.5 (67469) - http://www.bohemiancoding.com/sketch -->
    <title>line-2</title>
    <desc>Created with Sketch.</desc>
    <g id="line-2" stroke="none" stroke-width="1" fill="none" fill-rule="evenodd" stroke-dasharray="4,6">
        <path d="M366.5,-1591 L366.5,4805.60449" id="Path-63" stroke="#979797"></path>
    </g>
</svg>